COMPSCIX 415.2 Homework 5/Midterm
…
7-2)How many cities are represented?

answer: 46 cities with 187 data points for each

txhousing %>% 
  count(city)

## # A tibble: 46 x 2
##    city                      n
##    <chr>                 <int>
##  1 Abilene                 187
##  2 Amarillo                187
##  3 Arlington               187
##  4 Austin                  187
##  5 Bay Area                187
##  6 Beaumont                187
##  7 Brazoria County         187
##  8 Brownsville             187
##  9 Bryan-College Station   187
## 10 Collin County           187
## # ... with 36 more rows
…
sum(is.na(txhousing$sales)) 

## [1] 568

txhousing %>% 
  group_by(city) %>% 
  summarise(
    count = n(),
    number_of_NAs = sum(is.na(txhousing$city)))

## # A tibble: 46 x 3
##    city                  count number_of_NAs
##    <chr>                 <int>         <int>
##  1 Abilene                 187             0
##  2 Amarillo                187             0
##  3 Arlington               187             0
##  4 Austin                  187             0
##  5 Bay Area                187             0
##  6 Beaumont                187             0
##  7 Brazoria County         187             0
##  8 Brownsville             187             0
##  9 Bryan-College Station   187             0
## 10 Collin County           187             0
## # ... with 36 more rows
…
